<?xml version="1.0" encoding="UTF-8" standalone="no"?>
<!-- Created with Inkscape (http://www.inkscape.org/) -->

<svg
   width="128"
   height="128"
   viewBox="0 0 33.866666 33.866666"
   version="1.1"
   id="svg13"
   xmlns="http://www.w3.org/2000/svg"
   xmlns:svg="http://www.w3.org/2000/svg"
   xmlns:rdf="http://www.w3.org/1999/02/22-rdf-syntax-ns#">
  <defs
     id="defs10" />
  <path
     d="M 29.16803,20.050943 V 5.2509908 C 23.05054,3.1368582 16.93305,3.1368582 16.93305,3.1368582 c 0,0 -6.117484,0 -12.2349796,2.1141326 V 20.050943 C 8.7764026,28.696061 16.93305,31.678676 16.93305,31.678676 c 0,0 8.156653,-2.982615 12.23498,-11.627733 z"
     fill="#a6da78"
     id="path55"
     style="fill:#bbbbbb;fill-opacity:1;stroke:#2e3436;stroke-width:0.942195;stroke-miterlimit:4;stroke-dasharray:none;stroke-opacity:1" />
  <path
     d="M 28.420509,19.878412 28.408845,5.7893868 C 22.732033,3.8804365 16.93333,3.8880653 16.93333,3.8880653 c 0,0 -6.614473,0.2204556 -11.4910661,1.8974336 l 0.00389,14.0890241 c 3.8912357,8.12371 11.4871791,10.995874 11.4871791,10.995874 0,0 7.636828,-2.863842 11.487179,-10.991985 z"
     fill="#a6da78"
     id="path1062"
     style="fill:none;fill-opacity:1;stroke:#ffffff;stroke-width:0.546473;stroke-miterlimit:4;stroke-dasharray:none;stroke-opacity:0.27" />
  <g
     id="g2462"
     transform="translate(0,-1.0583333)">
    <path
       d="m 11.958593,20.233686 8.277822,-8.27782 1.655561,1.655567 -8.277817,8.277818 z"
       stroke="#080808"
       stroke-width="0.527629"
       id="path6"
       style="fill:#2e3436;stroke:#2e3436" />
    <path
       d="m 21.891976,20.233685 -8.277817,-8.277819 -1.655566,1.655567 8.277822,8.277818 z"
       stroke="#000000"
       stroke-width="0.527629"
       id="path8"
       style="fill:#2e3436;stroke:#2e3436" />
  </g>
  <metadata
     id="metadata27">
    <rdf:RDF />
  </metadata>
</svg>
