<?xml version="1.0" encoding="UTF-8" standalone="no"?>
<!-- Created with Inkscape (http://www.inkscape.org/) -->

<svg
   width="128"
   height="128"
   viewBox="0 0 33.866666 33.866666"
   version="1.1"
   id="svg13"
   xmlns="http://www.w3.org/2000/svg"
   xmlns:svg="http://www.w3.org/2000/svg"
   xmlns:rdf="http://www.w3.org/1999/02/22-rdf-syntax-ns#">
  <defs
     id="defs10" />
  <g
     id="layer1">
    <g
       id="off"
       transform="matrix(1.1870176,0,0,1.1870176,-3.1635024,-3.2677165)">
      <path
         d="M 27.237618,19.644746 V 7.1765636 C 22.083954,5.3955179 16.93029,5.3955179 16.93029,5.3955179 c 0,0 -5.153659,0 -10.3073277,1.7810457 V 19.644746 c 3.4357807,7.283058 10.3073277,9.795755 10.3073277,9.795755 0,0 6.871552,-2.512697 10.307328,-9.795755 z"
         fill="#a6da78"
         id="path55"
         style="fill:#fce94f;fill-opacity:1;stroke:#2e3436;stroke-width:0.79375;stroke-miterlimit:4;stroke-dasharray:none;stroke-opacity:1" />
      <path
         d="M 26.607871,19.499398 26.598045,7.630134 C 21.815629,6.0219436 16.930526,6.0283704 16.930526,6.0283704 c 0,0 -5.572346,0.1857223 -9.6806198,1.5984882 l 0.00328,11.8692634 c 3.2781614,6.843799 9.6773444,9.263446 9.6773444,9.263446 0,0 6.433627,-2.412636 9.677345,-9.26017 z"
         fill="#a6da78"
         id="path1062"
         style="fill:none;fill-opacity:1;stroke:#ffffff;stroke-width:0.460375;stroke-miterlimit:4;stroke-dasharray:none;stroke-opacity:0.27" />
      <path
         d="m 13.225479,18.559031 a 0.09950845,0.09950845 0 0 1 -0.02375,-0.03252 c -0.545271,-0.886617 -0.768236,-1.826402 -0.669726,-2.817644 0.102027,-0.988601 0.518487,-1.849231 1.250703,-2.581446 a 4.2682912,4.2682912 0 0 1 1.355367,-0.913845 4.3354593,4.3354593 0 0 1 1.602521,-0.344776 l 4.39e-4,-1.033901 a 0.3482796,0.3482796 0 0 1 0.104227,-0.256382 0.3482796,0.3482796 0 0 1 0.256384,-0.104229 0.3482796,0.3482796 0 0 1 0.256383,0.104229 l 1.795579,1.795579 a 0.3482796,0.3482796 0 0 1 0.104228,0.256382 0.3482796,0.3482796 0 0 1 -0.103784,0.256829 l -1.795579,1.795579 a 0.3482796,0.3482796 0 0 1 -0.256382,0.104227 0.3482796,0.3482796 0 0 1 -0.256827,-0.103782 0.3482796,0.3482796 0 0 1 -0.103784,-0.256829 l -8.79e-4,-1.098544 c -0.365448,0.01363 -0.716824,0.09235 -1.054128,0.236157 a 2.828528,2.828528 0 0 0 -0.893613,0.605999 c -0.357972,0.357972 -0.605132,0.778386 -0.741452,1.262137 a 2.8583806,2.8583806 0 0 0 -0.02814,1.463554 c 0.01628,0.07432 0.101588,0.301242 0.256385,0.681203 0.04045,0.08267 0.03079,0.153911 -0.02771,0.212402 l -0.769597,0.769598 a 0.16170126,0.16170126 0 0 1 -0.127985,0.04794 0.16170126,0.16170126 0 0 1 -0.128834,-0.04794 m 3.106539,3.307058 -1.796018,-1.796018 a 0.3482796,0.3482796 0 0 1 -0.103784,-0.256829 0.3482796,0.3482796 0 0 1 0.104227,-0.256382 l 1.795568,-1.795568 a 0.3482796,0.3482796 0 0 1 0.256383,-0.104228 0.3482796,0.3482796 0 0 1 0.256385,0.104229 0.3482796,0.3482796 0 0 1 0.104228,0.256383 v 1.106461 c 0.762119,-0.02947 1.411219,-0.312678 1.948178,-0.849637 0.358412,-0.358412 0.605568,-0.778825 0.742331,-1.263016 a 2.8583806,2.8583806 0 0 0 0.02726,-1.462673 c -0.01582,-0.07477 -0.101595,-0.302113 -0.256384,-0.681204 -0.03957,-0.08355 -0.03079,-0.15391 0.02815,-0.212851 l 0.797742,-0.797742 a 0.18906607,0.18906607 0 0 1 0.128407,-0.05628 0.18906607,0.18906607 0 0 1 0.127965,0.05673 l 0.02771,0.02771 c 0.542675,0.890093 0.762121,1.83076 0.657898,2.821561 -0.101588,0.994318 -0.52025,1.858904 -1.255105,2.593759 -0.390077,0.390077 -0.844357,0.694836 -1.362407,0.913842 a 4.3516295,4.3516295 0 0 1 -1.607357,0.356652 l -0.004,1.038296 A 0.3482796,0.3482796 0 0 1 16.84521,21.865643 0.3482796,0.3482796 0 0 1 16.588826,21.969871 0.3482796,0.3482796 0 0 1 16.332,21.866089"
         id="path6"
         style="fill:#2e3436;stroke-width:0.305106" />
    </g>
  </g>
  <metadata
     id="metadata27">
    <rdf:RDF />
  </metadata>
</svg>
