<?xml version="1.0" encoding="UTF-8" standalone="no"?>
<!-- Created with Inkscape (http://www.inkscape.org/) -->

<svg
   width="128"
   height="128"
   viewBox="0 0 33.866666 33.866666"
   version="1.1"
   id="svg13"
   inkscape:version="1.1.1 (3bf5ae0d25, 2021-09-20)"
   sodipodi:docname="wait-1.svg"
   xmlns:inkscape="http://www.inkscape.org/namespaces/inkscape"
   xmlns:sodipodi="http://sodipodi.sourceforge.net/DTD/sodipodi-0.dtd"
   xmlns="http://www.w3.org/2000/svg"
   xmlns:svg="http://www.w3.org/2000/svg"
   xmlns:rdf="http://www.w3.org/1999/02/22-rdf-syntax-ns#">
  <sodipodi:namedview
     id="namedview15"
     pagecolor="#ffffff"
     bordercolor="#666666"
     borderopacity="1.0"
     inkscape:pageshadow="2"
     inkscape:pageopacity="0.0"
     inkscape:pagecheckerboard="true"
     inkscape:document-units="px"
     showgrid="true"
     units="px"
     gridtolerance="2.1"
     guidetolerance="2.1"
     objecttolerance="5.5"
     inkscape:zoom="4"
     inkscape:cx="74.5"
     inkscape:cy="43.5"
     inkscape:window-width="1551"
     inkscape:window-height="773"
     inkscape:window-x="281"
     inkscape:window-y="43"
     inkscape:window-maximized="0"
     inkscape:current-layer="off">
    <sodipodi:guide
       position="0,33.866666"
       orientation="0,128"
       id="guide17" />
    <sodipodi:guide
       position="33.866666,33.866666"
       orientation="128,0"
       id="guide19" />
    <sodipodi:guide
       position="33.866666,0"
       orientation="0,-128"
       id="guide21" />
    <sodipodi:guide
       position="0,0"
       orientation="-128,0"
       id="guide23" />
    <inkscape:grid
       type="xygrid"
       id="grid25"
       spacingx="2.1166666"
       spacingy="2.1166666"
       empspacing="4"
       empcolor="#3f3fff"
       empopacity="0.41960784" />
  </sodipodi:namedview>
  <defs
     id="defs10" />
  <g
     inkscape:label="Layer 1"
     inkscape:groupmode="layer"
     id="layer1">
    <g
       id="off"
       transform="matrix(1.1870176,0,0,1.1870176,-3.1635024,-3.2677165)">
      <path
         d="M 27.237618,19.644746 V 7.1765636 C 22.083954,5.3955179 16.93029,5.3955179 16.93029,5.3955179 c 0,0 -5.153659,0 -10.3073277,1.7810457 V 19.644746 c 3.4357807,7.283058 10.3073277,9.795755 10.3073277,9.795755 0,0 6.871552,-2.512697 10.307328,-9.795755 z"
         fill="#a6da78"
         id="path55"
         style="fill:#fce94f;fill-opacity:1;stroke:#2e3436;stroke-width:0.79375;stroke-miterlimit:4;stroke-dasharray:none;stroke-opacity:1" />
      <path
         d="M 26.607871,19.499398 26.598045,7.630134 C 21.815629,6.0219436 16.930526,6.0283704 16.930526,6.0283704 c 0,0 -5.572346,0.1857223 -9.6806198,1.5984882 l 0.00328,11.8692634 c 3.2781614,6.843799 9.6773444,9.263446 9.6773444,9.263446 0,0 6.433627,-2.412636 9.677345,-9.26017 z"
         fill="#a6da78"
         id="path1062"
         style="fill:none;fill-opacity:1;stroke:#ffffff;stroke-width:0.460375;stroke-miterlimit:4;stroke-dasharray:none;stroke-opacity:0.27"
         sodipodi:nodetypes="ccccccc" />
      <path
         d="m 19.189959,19.84482 a 0.09950845,0.09950845 0 0 1 -0.03252,0.02375 c -0.886617,0.545273 -1.826402,0.768237 -2.817644,0.669728 -0.988601,-0.102026 -1.849231,-0.518487 -2.581446,-1.250703 a 4.2682912,4.2682912 0 0 1 -0.913844,-1.355367 4.3354593,4.3354593 0 0 1 -0.344777,-1.602521 l -1.0339,-4.39e-4 a 0.3482796,0.3482796 0 0 1 -0.256383,-0.104227 0.3482796,0.3482796 0 0 1 -0.104228,-0.256384 0.3482796,0.3482796 0 0 1 0.104228,-0.256383 l 1.795579,-1.795579 a 0.3482796,0.3482796 0 0 1 0.256383,-0.104228 0.3482796,0.3482796 0 0 1 0.256828,0.103784 l 1.795579,1.795579 a 0.3482796,0.3482796 0 0 1 0.104227,0.256382 0.3482796,0.3482796 0 0 1 -0.103782,0.256827 0.3482796,0.3482796 0 0 1 -0.256829,0.103784 l -1.098544,8.79e-4 c 0.01363,0.365448 0.09235,0.716824 0.236157,1.054128 a 2.828528,2.828528 0 0 0 0.605999,0.893613 c 0.357972,0.357972 0.778386,0.605132 1.262137,0.741452 a 2.8583806,2.8583806 0 0 0 1.463554,0.02814 c 0.07432,-0.01628 0.301242,-0.101588 0.681203,-0.256385 0.08267,-0.04045 0.153909,-0.03079 0.212403,0.02771 l 0.769597,0.769598 a 0.16170126,0.16170126 0 0 1 0.04794,0.127985 0.16170126,0.16170126 0 0 1 -0.04794,0.128835 m 3.307059,-3.106539 -1.796018,1.796018 a 0.3482796,0.3482796 0 0 1 -0.25683,0.103784 0.3482796,0.3482796 0 0 1 -0.256381,-0.104227 l -1.795568,-1.795568 a 0.3482796,0.3482796 0 0 1 -0.104229,-0.256383 0.3482796,0.3482796 0 0 1 0.10423,-0.256385 0.3482796,0.3482796 0 0 1 0.256383,-0.104228 l 1.106461,10e-7 c -0.02947,-0.762119 -0.312679,-1.41122 -0.849637,-1.948178 -0.358412,-0.358412 -0.778825,-0.605569 -1.263017,-0.742332 a 2.8583806,2.8583806 0 0 0 -1.462673,-0.02726 c -0.07477,0.01582 -0.302113,0.101595 -0.681204,0.256384 -0.08355,0.03957 -0.153909,0.03079 -0.212851,-0.02815 l -0.797742,-0.797742 a 0.18906607,0.18906607 0 0 1 -0.05628,-0.12841 0.18906607,0.18906607 0 0 1 0.05673,-0.127965 l 0.02771,-0.02771 c 0.890093,-0.542675 1.83076,-0.762121 2.821561,-0.657898 0.994318,0.101589 1.858904,0.52025 2.593759,1.255105 0.390077,0.390077 0.694836,0.844357 0.913842,1.362407 a 4.3516295,4.3516295 0 0 1 0.356652,1.607357 l 1.038296,0.004 a 0.3482796,0.3482796 0 0 1 0.256382,0.104228 0.3482796,0.3482796 0 0 1 0.104229,0.256383 0.3482796,0.3482796 0 0 1 -0.103782,0.256827"
         id="path6"
         style="fill:#2e3436;stroke-width:0.305106" />
    </g>
  </g>
  <metadata
     id="metadata27">
    <rdf:RDF />
  </metadata>
</svg>
